<?xml version="1.0" encoding="utf-8"?>
<!-- Generator: Adobe Illustrator 26.1.0, SVG Export Plug-In . SVG Version: 6.00 Build 0)  -->
<svg version="1.1" id="Layer_1" xmlns="http://www.w3.org/2000/svg" xmlns:xlink="http://www.w3.org/1999/xlink" x="0px" y="0px"
	 viewBox="0 0 124.18 134.32" style="enable-background:new 0 0 124.18 134.32;" xml:space="preserve">
<path d="M52.09,21.02v26.7c0,3.15-0.33,5.53-1,7.14c-1.09,2.68-2.95,4.76-5.57,6.24c-2.56,1.45-5.56,2.18-8.99,2.18
	c-4.42,0-7.97-1.2-10.66-3.6c-3.21-2.83-4.81-6.95-4.81-12.38c0-0.46,0.02-1.16,0.06-2.09h11.53c-0.02,0.61-0.03,1.07-0.03,1.39
	c0,2.54,0.26,4.22,0.79,5.03c0.63,0.95,1.61,1.42,2.97,1.42c1.67,0,2.71-0.78,3.12-2.33c0.12-0.5,0.18-1.45,0.18-2.85V21.02H52.09z"
	/>
<path d="M80.14,46.53v5.54h23.1v10.75H67.72V21.49h34.94v10.75H80.14v5.21h19.41v9.08H80.14z"/>
<path d="M56.51,99.94c-0.5,4.06-1.9,7.45-4.18,10.17c-3.59,4.3-8.51,6.45-14.74,6.45c-5.43,0-10.02-1.62-13.77-4.87
	c-2.1-1.84-3.77-4.09-5.03-6.75c-1.43-3.09-2.15-6.47-2.15-10.14c0-4.16,0.95-7.95,2.85-11.38c2.16-3.85,5.19-6.65,9.08-8.39
	c2.54-1.13,5.31-1.7,8.29-1.7c4.36,0,8.24,1.13,11.66,3.39c3.25,2.18,5.48,4.93,6.69,8.26c0.46,1.25,0.77,2.81,0.91,4.66H43.97
	c-0.2-1.63-0.73-2.94-1.57-3.91c-1.29-1.45-3.06-2.18-5.3-2.18c-2.16,0-3.87,0.8-5.12,2.39c-1.84,2.36-2.75,5.45-2.75,9.26
	c0,3.75,0.9,6.66,2.69,8.72c1.37,1.59,3.22,2.39,5.54,2.39c2.62,0,4.51-1.08,5.66-3.24c0.44-0.85,0.74-1.9,0.88-3.15H56.51z"/>
<path d="M85.72,73.34c5.29,0,9.79,1.52,13.5,4.57c4.84,3.98,7.27,9.66,7.27,17.04c0,7.35-2.42,13.02-7.27,17.01
	c-3.69,3.05-8.27,4.57-13.74,4.57c-5.47,0-10.05-1.52-13.74-4.57c-4.84-4-7.27-9.65-7.27-16.95c0-7.55,2.42-13.25,7.27-17.1
	C75.55,74.87,80.21,73.34,85.72,73.34z M85.36,83.58c-2.7,0-4.81,1.2-6.33,3.6c-1.31,2.08-1.97,4.67-1.97,7.78
	c0,3.09,0.66,5.67,1.97,7.75c1.51,2.4,3.66,3.6,6.45,3.6s4.93-1.2,6.45-3.6c1.31-2.1,1.97-4.67,1.97-7.72
	c0-3.17-0.66-5.77-1.97-7.81C90.39,84.78,88.2,83.58,85.36,83.58z"/>
<rect x="17.12" y="21.02" width="34.94" height="10.75"/>
<rect x="0" y="7.67" width="10.75" height="126.65"/>
<rect x="113.44" y="0" width="10.75" height="134.32"/>
<rect x="0" y="0" width="119.18" height="10.75"/>
<rect x="8.6" y="123.57" width="106.72" height="10.75"/>
</svg>
